{
  "type": "object",
  "properties": {
    "date": {
      "type": "string"
    },
    "version": {
      "type": "string"
    },
    "files": {
      "type": "array",
      "items": {
        "type": "string"
      }
    }
  },
  "required": [
    "date",
    "files"
  ]
}